<svg id="i-trash" viewBox="0 0 32 32" width="32" height="32" fill="none" stroke="currentcolor" stroke-linecap="round" stroke-linejoin="round" stroke-width="6.25%">
    <path d="M28 6 L6 6 8 30 24 30 26 6 4 6 M16 12 L16 24 M21 12 L20 24 M11 12 L12 24 M12 6 L13 2 19 2 20 6" />
</svg>
